…
```r
group_new_dat <- group_by(new_dat, sex, decade)
summarise(group_new_dat,
          mean_year = mean(n),
          median_year = median(n))
```

```
## `summarise()` has grouped output by 'sex'. You can override using the `.groups` argument.
```

```
## # A tibble: 28 x 4
## # Groups:   sex [2]
##    sex   decade mean_year median_year
##    <chr>  <dbl>     <dbl>       <dbl>
##  1 F       1880      111.          13
##  2 F       1890      128.          13
##  3 F       1900      131.          12
##  4 F       1910      187.          12
##  5 F       1920      211.          12
##  6 F       1930      214.          12
##  7 F       1940      262.          12
##  8 F       1950      288.          13
##  9 F       1960      235.          12
## 10 F       1970      147.          11
## # ... with 18 more rows
```
…
